<svg id="Pfeil" xmlns="http://www.w3.org/2000/svg" width="17.3" height="11.307" viewBox="0 0 17.3 11.307">
  <path id="Path_28" data-name="Path 28" d="M162.753,97.477,160.1,94.819,154.1,100.81l-5.991-5.991-2.658,2.658,8.649,8.649Z" transform="translate(-145.453 -94.819)" fill="#192351"/>
</svg>
